<svg width="15" height="15" viewBox="0 0 15 15" fill="none" xmlns="http://www.w3.org/2000/svg">
<path d="M13.3025 5.17237L9.5833 4.63184L7.9207 1.26124C7.87529 1.16895 7.80059 1.09424 7.7083 1.04883C7.47686 0.934576 7.19561 1.02979 7.07988 1.26124L5.41729 4.63184L1.69805 5.17237C1.59551 5.18702 1.50176 5.23536 1.42998 5.3086C1.34321 5.39779 1.29539 5.51778 1.29704 5.64221C1.29869 5.76663 1.34966 5.88531 1.43877 5.97217L4.12969 8.59571L3.49395 12.3003C3.47904 12.3865 3.48857 12.4751 3.52147 12.5561C3.55437 12.6372 3.60932 12.7074 3.68008 12.7588C3.75084 12.8102 3.83459 12.8407 3.92183 12.8469C4.00906 12.8531 4.0963 12.8348 4.17363 12.794L7.50029 11.0449L10.827 12.794C10.9178 12.8423 11.0232 12.8584 11.1243 12.8408C11.3792 12.7969 11.5506 12.5552 11.5066 12.3003L10.8709 8.59571L13.5618 5.97217C13.6351 5.9004 13.6834 5.80665 13.698 5.70411C13.7376 5.44776 13.5589 5.21045 13.3025 5.17237Z" fill="#FFBA08"/>
</svg>
