<svg width="8" height="14" viewBox="0 0 8 14" fill="none" xmlns="http://www.w3.org/2000/svg">
<path d="M0.287122 6.30693L6.30691 0.287338C6.68984 -0.0957786 7.3107 -0.0957785 7.69345 0.287338C8.07622 0.670114 8.07622 1.29094 7.69345 1.67368L2.36686 7.0001L7.69329 12.3263C8.07607 12.7093 8.07607 13.33 7.69329 13.7128C7.31052 14.0957 6.68969 14.0957 6.30676 13.7128L0.286967 7.69312C0.0955791 7.50164 -6.73122e-06 7.25095 -6.71556e-06 7.00013C-6.6999e-06 6.74919 0.0957651 6.49832 0.287122 6.30693Z" fill="white"/>
</svg>
